// Periodic hill test case, partially structured grid

Include "periodic_hill_BL_geometry.geo";


// -------------------- Upper region -----------------------------------

// Define the 2D surface

P31 = newp; Point(P31) = {0.0,Ly,0.0,0.0};
P34 = newp; Point(P34) = {Lx ,Ly,0.0,0.0};
upper_left  = newreg; Line(upper_left ) = {P21,P31};
upper_right = newreg; Line(upper_right) = {P24,P34};
top         = newreg; Line(top        ) = {P31,P34};

// set the vertical resolution
Transfinite Line{upper_left,upper_right} 
  = n_upper Using Progression upper_progr;

// define the region
upper_region = newreg;
Line Loop(upper_region) = {
   bottom_left_bl , bottom_center_bl , bottom_right_bl ,
   upper_right , -top , -upper_left };
upper_region_s = news;
Plane Surface(upper_region_s) = {upper_region};

// -------------------- End upper region -------------------------------


// -------------------- Upper volume -----------------------------------

// The upper volume is generated by extrusion, exactly as in the
// boundary layer. This produces a structured grid in the z direction.

pp[] = Extrude{0,0, Lz/2}{
  Surface{upper_region_s}; Layers{n_z_layers};
};
upper_sp = pp[0]; // extruded surface
outflow_upper_zp = pp[5];
inflow_upper_zp  = pp[7];
top_upper_zp     = pp[6];

pp[] = Extrude{0,0,-Lz/2}{
  Surface{upper_region_s}; Layers{n_z_layers};
};
upper_sm = pp[0]; // extruded surface
outflow_upper_zm = pp[5];
inflow_upper_zm  = pp[7];
top_upper_zm     = pp[6];

// keep track of the relevant surfaces
inflow_surfaces  = {inflow_surfaces[] ,
                     inflow_upper_zp  , inflow_upper_zm };
outflow_surfaces = { outflow_surfaces[] , 
                     outflow_upper_zp , outflow_upper_zm };
top_surfaces = { top_upper_zp , top_upper_zm };
z_max_surfaces  = { z_max_surfaces[] , upper_sp };
z_min_surfaces  = { z_min_surfaces[] , upper_sm };

// -------------------- End upper volume -------------------------------


// -------------------- Local grid refinement --------------------------

Field[1] = MathEval;
pp[] = Point{P22}; // get the upper y of the boundary layer
y_bl = pp[1];
Field[1].F = Sprintf(
  "10.0 + 8.0*(y-%g)/(%g-%g)", y_bl, Ly, y_bl );
Background Field = 1;

// -------------------- End local grid refinement ----------------------


Printf(" ");
Printf("Surface indexes for the complete domain:");
Printf(" -> inflow surfaces:   %g %g %g %g",inflow_surfaces[]);
Printf(" -> outflow surfaces:  %g %g %g %g",outflow_surfaces[]);
Printf(" -> bottom surfaces:   %g %g %g %g %g %g",bottom_surfaces[]);
Printf(" -> top surfaces:      %g %g",top_surfaces[]);
Printf(" -> z = zmax surfaces: %g %g %g %g",z_max_surfaces[]);
Printf(" -> z = zmin surfaces: %g %g %g %g",z_min_surfaces[]);
Printf(" ");


